C:\Users\Mihaiela\Desktop\final\smir1967\src\main\java\biblioteca\repository\repoInterfaces\CartiRepoInterface.java
C:\Users\Mihaiela\Desktop\final\smir1967\src\main\java\biblioteca\control\BibliotecaCtrl.java
C:\Users\Mihaiela\Desktop\final\smir1967\src\main\java\biblioteca\model\Carte.java
C:\Users\Mihaiela\Desktop\final\smir1967\src\main\java\biblioteca\view\Consola.java
C:\Users\Mihaiela\Desktop\final\smir1967\src\main\java\biblioteca\util\Validator.java
C:\Users\Mihaiela\Desktop\final\smir1967\src\main\java\biblioteca\begin\Start.java
C:\Users\Mihaiela\Desktop\final\smir1967\src\main\java\biblioteca\repository\repo\CartiRepo.java
C:\Users\Mihaiela\Desktop\final\smir1967\src\main\java\biblioteca\repository\repoMock\CartiRepoMock.java
